07-08-2009 14:47:22 Batch with ID 6 is created.
07-08-2009 15:05:55 FILE GENERATOR: Running ...
07-08-2009 15:28:07 Unable to generate file C:/Projects/invoicenb/target/filegenerator/generatedpdf/INV_23330_522_2009Aug07.pdf for invoice/statement 522au.com.intergy.invoice.filegenerator.FileGenerationException: Unable to generate pdf file C:/Projects/invoicenb/target/filegenerator/generatedpdf/INV_23330_522_2009Aug07.pdf with C:/Projects/invoicenb/test/stylesheets/globalTemplates.xsltjava.io.FileNotFoundException: C:\Projects\invoicenb\target\filegenerator\generatedpdf\INV_23330_522_2009Aug07.pdf (The process cannot access the file because it is being used by another process)
07-08-2009 15:40:28 Batch with ID 7 is created.
07-08-2009 16:03:18 Batch with ID 8 is created.
07-08-2009 17:21:26 Batch with ID 9 is created.
26-08-2009 15:50:32 Unable to create BatchGroup au.com.intergy.invoice.common.DBAccessException: Unable to create cust batchCustomerBatch ( au.com.intergy.invoice.common.CustomerBatch@0
batchId = 16
customerBatchId = 0
brand = CS
customerKey = EDSC23
creditControllerName = NOSHABA MALIK       
creditControllerEmail = nmalik@citysprint.co.uk                                                    
creditControllerPhone = 0870 8732191
status = INIT
transportMethod = EMAIL
outputFormat = PDF
transportAddress = SCIENTIFICSERVICES.BUSINESSSUPPORT@SCOTTISHWATER.CO.UK
transportUsername = null
transportPassword = null
xsltFileName = globalTemplates.xslt
statement = null
errorMessage = null
errorSentDateTime = null
 )Data truncation: Data too long for column 'TransportAddress' at row 1
26-08-2009 15:50:32 Unable to create Batch: Unable to create cust batchCustomerBatch ( au.com.intergy.invoice.common.CustomerBatch@0
batchId = 16
customerBatchId = 0
brand = CS
customerKey = EDSC23
creditControllerName = NOSHABA MALIK       
creditControllerEmail = nmalik@citysprint.co.uk                                                    
creditControllerPhone = 0870 8732191
status = INIT
transportMethod = EMAIL
outputFormat = PDF
transportAddress = SCIENTIFICSERVICES.BUSINESSSUPPORT@SCOTTISHWATER.CO.UK
transportUsername = null
transportPassword = null
xsltFileName = globalTemplates.xslt
statement = null
errorMessage = null
errorSentDateTime = null
 )Data truncation: Data too long for column 'TransportAddress' at row 1
09-10-2009 10:31:53 null
09-10-2009 10:44:08 null
09-10-2009 10:58:13 In webservice
09-10-2009 10:58:13 before XMLParser
09-10-2009 10:58:15 null
09-10-2009 10:58:26 In webservice
09-10-2009 10:58:26 before XMLParser
09-10-2009 10:58:27 null
09-10-2009 11:02:22 In webservice
09-10-2009 11:02:22 before XMLParser
09-10-2009 11:02:24 null
09-10-2009 11:04:44 In webservice
09-10-2009 11:04:44 before XMLParser
09-10-2009 11:04:46 null
09-10-2009 11:09:35 In webservice
09-10-2009 11:09:35 before XMLParser
09-10-2009 11:09:36 WARNING: (Invoice WS) Invalid data Transport method cannot be empty.
09-10-2009 11:10:27 In webservice
09-10-2009 11:10:27 before XMLParser
09-10-2009 11:10:28 after XMLParser
09-10-2009 11:10:31 after batchdataaccess
09-10-2009 11:10:31 Batch with ID 11 is created.
